0 0.370225694444 0.372395833333 0.114583333333 0.152777777778 
0 0.370225694444 0.240451388889 0.151041666667 0.201388888889 
0 0.412109375 0.139178240741 0.106336805556 0.141782407407 
0 0.470269097222 0.0810185185185 0.0946180555556 0.126157407407 
0 0.47265625 0.276041666667 0.0842013888889 0.112268518519 
0 0.517361111111 0.258680555556 0.078125 0.104166666667 
0 0.482204861111 0.473958333333 0.109375 0.145833333333 
0 0.423611111111 0.595196759259 0.147569444444 0.196759259259 
0 0.286241319444 0.618634259259 0.126736111111 0.168981481481 
