0 0.365885416667 0.39525462963 0.197048611111 0.262731481481 
0 0.662326388889 0.288194444444 0.199652777778 0.266203703704 
0 0.576822916667 0.61400462963 0.181423611111 0.241898148148 
0 0.40234375 0.618055555556 0.191840277778 0.255787037037 
0 0.277777777778 0.621527777778 0.168402777778 0.224537037037 
0 0.614583333333 0.792824074074 0.138888888889 0.185185185185 
