0 0.514539930556 0.408564814815 0.0802951388889 0.107060185185 
0 0.557725694444 0.488136574074 0.111111111111 0.148148148148 
0 0.473090277778 0.579861111111 0.0989583333333 0.131944444444 
0 0.402777777778 0.517361111111 0.0963541666667 0.128472222222 
0 0.318142361111 0.225115740741 0.0772569444444 0.103009259259 
0 0.419704861111 0.0752314814815 0.0703125 0.09375 
0 0.483506944444 0.164930555556 0.0798611111111 0.106481481481 
0 0.523003472222 0.0474537037037 0.0659722222222 0.087962962963 
0 0.126085069444 0.0737847222222 0.0655381944444 0.0873842592593 
0 0.153428819444 0.164930555556 0.0707465277778 0.0943287037037 
0 0.0538194444444 0.221064814815 0.0824652777778 0.109953703704 
0 0.0295138888889 0.684027777778 0.0572916666667 0.0763888888889 
0 0.2265625 0.113136574074 0.0720486111111 0.0960648148148 
