0 0.613715277778 0.370081018519 0.106770833333 0.142361111111 
0 0.460286458333 0.313657407407 0.102864583333 0.137152777778 
0 0.428385416667 0.556712962963 0.0998263888889 0.133101851852 
0 0.509982638889 0.545138888889 0.0902777777778 0.12037037037 
