0 0.295138888889 0.40162037037 0.113715277778 0.15162037037 
0 0.493272569444 0.377604166667 0.134114583333 0.178819444444 
0 0.422092013889 0.498553240741 0.109809027778 0.146412037037 
0 0.433810763889 0.61400462963 0.114149305556 0.152199074074 
0 0.326822916667 0.588831018519 0.112413194444 0.149884259259 
0 0.843967013889 0.313657407407 0.0807291666667 0.107638888889 
0 0.798828125 0.355034722222 0.0698784722222 0.0931712962963 
0 0.957682291667 0.384259259259 0.0750868055556 0.100115740741 
0 0.743706597222 0.386574074074 0.0724826388889 0.0966435185185 
0 0.508029513889 0.0830439814815 0.0690104166667 0.0920138888889 
0 0.374782986111 0.138020833333 0.0950520833333 0.126736111111 
