0 0.432725694444 0.228587962963 0.106770833333 0.142361111111 
0 0.483940972222 0.303240740741 0.111111111111 0.148148148148 
0 0.398003472222 0.355324074074 0.1015625 0.135416666667 
0 0.418402777778 0.467592592593 0.131944444444 0.175925925926 
0 0.815538194444 0.611111111111 0.0815972222222 0.108796296296 
