0 0.380642361111 0.140625 0.110243055556 0.146990740741 
0 0.437065972222 0.269097222222 0.122395833333 0.163194444444 
0 0.600694444444 0.340856481481 0.112847222222 0.150462962963 
0 0.498263888889 0.449074074074 0.125 0.166666666667 
0 0.371527777778 0.41724537037 0.126736111111 0.168981481481 
0 0.42578125 0.668981481481 0.120659722222 0.16087962963 
0 0.794704861111 0.333333333333 0.0833333333333 0.111111111111 
0 0.852430555556 0.474537037037 0.0972222222222 0.12962962963 
0 0.0755208333333 0.884259259259 0.0711805555556 0.0949074074074 
