0 0.3828125 0.513310185185 0.121527777778 0.162037037037 
0 0.460069444444 0.536458333333 0.114583333333 0.152777777778 
0 0.61328125 0.573784722222 0.0980902777778 0.130787037037 
0 0.495008680556 0.305266203704 0.180989583333 0.241319444444 
0 0.33203125 0.303819444444 0.130208333333 0.173611111111 
0 0.557508680556 0.0627893518519 0.0941840277778 0.125578703704 
