0 0.422526041667 0.444155092593 0.18359375 0.244791666667 
0 0.367838541667 0.662037037037 0.137586805556 0.183449074074 
0 0.284288194444 0.510416666667 0.100694444444 0.134259259259 
0 0.358940972222 0.123842592593 0.185763888889 0.247685185185 
0 0.540581597222 0.171006944444 0.203559027778 0.271412037037 
0 0.638237847222 0.293113425926 0.17578125 0.234375 
0 0.691840277778 0.375 0.0694444444444 0.0925925925926 
