0 0.162760416667 0.826967592593 0.0512152777778 0.068287037037 
0 0.203559027778 0.873263888889 0.0633680555556 0.0844907407407 
0 0.252170138889 0.931134259259 0.0460069444444 0.0613425925926 
0 0.339409722222 0.9453125 0.0815972222222 0.108796296296 
0 0.300347222222 0.853587962963 0.0807291666667 0.107638888889 
0 0.489149305556 0.685185185185 0.0477430555556 0.0636574074074 
0 0.50390625 0.755787037037 0.0546875 0.0729166666667 
0 0.463107638889 0.822337962963 0.0546875 0.0729166666667 
0 0.416232638889 0.831018518519 0.0460069444444 0.0613425925926 
0 0.392795138889 0.873842592593 0.0572916666667 0.0763888888889 
0 0.359375 0.805555555556 0.0538194444444 0.0717592592593 
0 0.439670138889 0.553240740741 0.0694444444444 0.0925925925926 
0 0.483072916667 0.503472222222 0.0694444444444 0.0925925925926 
0 0.549045138889 0.586226851852 0.0633680555556 0.0844907407407 
0 0.489583333333 0.623842592593 0.0607638888889 0.0810185185185 
0 0.749131944444 0.740162037037 0.0633680555556 0.0844907407407 
0 0.705295138889 0.804976851852 0.0824652777778 0.109953703704 
0 0.678385416667 0.722800925926 0.0842013888889 0.112268518519 
0 0.500434027778 0.246527777778 0.0807291666667 0.107638888889 
0 0.466145833333 0.392939814815 0.0737847222222 0.0983796296296 
0 0.378472222222 0.253472222222 0.0815972222222 0.108796296296 
0 0.359809027778 0.349537037037 0.0720486111111 0.0960648148148 
0 0.404947916667 0.32349537037 0.0529513888889 0.0706018518519 
0 0.283854166667 0.136574074074 0.0711805555556 0.0949074074074 
0 0.306423611111 0.068287037037 0.0729166666667 0.0972222222222 
0 0.266493055556 0.207175925926 0.0694444444444 0.0925925925926 
0 0.3515625 0.122685185185 0.0746527777778 0.099537037037 
0 0.273871527778 0.294560185185 0.0720486111111 0.0960648148148 
0 0.378038194444 0.480324074074 0.0711805555556 0.0949074074074 
0 0.584201388889 0.675925925926 0.0607638888889 0.0810185185185 
