0 0.384982638889 0.305555555556 0.0720486111111 0.0960648148148 
0 0.453993055556 0.480902777778 0.0651041666667 0.0868055555556 
0 0.358506944444 0.381944444444 0.0503472222222 0.0671296296296 
0 0.326388888889 0.482060185185 0.0633680555556 0.0844907407407 
0 0.1484375 0.335648148148 0.0642361111111 0.0856481481481 
0 0.368489583333 0.215277777778 0.046875 0.0625 
0 0.481336805556 0.458912037037 0.0407986111111 0.0543981481481 
0 0.412326388889 0.421875 0.0538194444444 0.0717592592593 
